{ "links" : [
    {"linkUrl": "nike", "name": "Nike"},
    {"linkUrl": "puma", "name": "Puma"},
    {"linkUrl": "adidas", "name": "Adidas"},
    {"linkUrl": "fila", "name": "Fila"},
    {"linkUrl": "lee", "name": "Lee"},
    {"linkUrl": "united-colors-of-benetton", "name": "United Colors of Benetton"},
    {"linkUrl": "wrangler", "name": "Wrangler"},
    {"linkUrl": "fastrack", "name": "Fastrack"},
    {"linkUrl": "woodland", "name": "Woodland"},
    {"linkUrl": "yepme", "name": "Yepme"},
    {"linkUrl": "levis", "name": "Levis"},
    {"linkUrl": "tommy-hilfiger", "name": "Tommy Hilfiger"},
    {"linkUrl": "peter-england", "name": "peter-england"},
    {"linkUrl": "fabindia", "name": "fabindia"},
    {"linkUrl": "nike-shoes", "name": "nike shoes"},
    {"linkUrl": "tops", "name": "tops"},
    {"linkUrl": "shirts", "name": "shirts"},
    {"linkUrl": "jackets", "name": "jackets"},
    {"linkUrl": "myntra-coupons", "name": "myntra coupons"},
    {"linkUrl": "kurtis", "name": "kurtis"},
    {"linkUrl": "shoes", "name": "shoes"},
    {"linkUrl": "tunics", "name": "tunics"},
    {"linkUrl": "dresses", "name": "dresses"},
    {"linkUrl": "watches", "name": "Watches"},
    {"linkUrl": "saree", "name": "saree"},
    {"linkUrl": "kurtas", "name": "kurtas"},
    {"linkUrl": "bags", "name": "bags"},
    {"linkUrl": "tshirts", "name": "T-shirts"},
    {"linkUrl": "designer-saree", "name": "designer saree"},
    {"linkUrl": "sunglasses", "name": "sunglasses"},
    {"linkUrl": "jeans", "name": "jeans"},
    {"linkUrl": "trousers", "name": "trousers"},
    {"linkUrl": "adidas-shoes", "name": "adidas shoes"},
    {"linkUrl": "casual-shoes", "name": "casual shoes"},
    {"linkUrl": "sports-shoes", "name": "sports shoes"},
    {"linkUrl": "fastrack-watches", "name": "fastrack watches"},
    {"linkUrl": "ethnic-wear", "name": "ethnic wear"},
    {"linkUrl": "woodland-shoes", "name": "woodland-shoes"},
    {"linkUrl": "mobile/apps", "name": "mobile app"},
    {"linkUrl": "puma-shoes", "name": "puma shoes"},
    {"linkUrl": "accessories", "name": "accessories"},
    {"linkUrl": "anarkali-suit", "name": "anarkali suit"},
    {"linkUrl": "running-shoes", "name": "running shoes"},
    {"linkUrl": "reebok", "name": "reebok"},
    {"linkUrl": "formal-wear", "name": "formal wear"},
    {"linkUrl": "cat", "name": "cat"},
    {"linkUrl": "jewellery", "name": "jewellery"}],
  "navigation": [
    {"linkUrl": "shop/men", "name": "Men"},
    {"linkUrl": "shop/women", "name": "Women"},
    {"linkUrl": "shop/kids", "name": "Kids"},
    {"linkUrl": "home-furnishing", "name": "Home Decor"},
    {"linkUrl": "style-savings", "name": "Sale"}],
  "usefulLinks": [
    {"linkUrl": "contactus", "name": "Contact Us"},
    {"linkUrl": "faqs", "name": "FAQ"},
    {"linkUrl": "tac", "name": "T&C"},
    {"linkUrl": "termsofuse", "name": "Terms Of Use"},
    {"linkUrl": "my/orders", "name": "Track Orders"},
    {"linkUrl": "faqs#shipping", "name": "Shipping"},
    {"linkUrl": "faqs#cancel", "name": "Cancellation"},
    {"linkUrl": "faqs#returns", "name": "Returns"},
    {"linkUrl": "security/whitehat", "name": "Whitehat"},
    {"linkUrl": "http://blog.myntra.com/", "name": "Blog"},
    {"linkUrl": "https://careers.myntra.com", "name": "Careers"},
    {"linkUrl": "/privacypolicy", "name": "Privacy policy"},
    { "linkUrl": "/sitemap", "name": "Site Map"}],
  "osLinkMap" : {
    "android": "app.android.dlink",
    "windows": "app.windows.dlink",
    "ios": "app.ios.dlink"
  },
  "googleAppDownloadLink": "https://play.google.com/store/apps/details?id=com.myntra.android",
  "iosAppDownLoadLink": "https://itunes.apple.com/in/app/myntra-indias-fashion-store/id907394059",
  "windowsAppDownloadLink": "http://www.windowsphone.com/en-us/store/app/myntra-india-fashion-store/a92e3afb-c791-4624-86da-8624f91cfbc1",
  "kvpairsAppLinkMap" : {
    "app.android.dlink": "http://ad.apsalar.com/api/v1/ad?re=0&st=687711906604&h=1f2b9e36f2083b55df984310594e479adb75adb5",
    "app.ios.dlink": "http://ad.apsalar.com/api/v1/ad?re=0&st=687711906604&h=1f2b9e36f2083b55df984310594e479adb75adb5",
    "app.windows.dlink": "http://www.windowsphone.com/en-us/store/app/myntra-india-fashion-store/a92e3afb-c791-4624-86da-8624f91cfbc1"
  }
}
