{
   "data":{
      "children":[
         {
            "children":[
               {
                  "children":[

                  ],
                  "props":{
                     "title":"Orders",
                     "url":"/my/orders"
                  }
               },
               {
                  "children":[

                  ],
                  "props":{
                     "title":"Wishlist",
                     "url":"/wishlist"
                  }
               },
               {
                  "children":[

                  ],
                  "props":{
                     "title":"Gift Cards",
                     "url":"/giftcard"
                  }
               },
               {
                "children":[

                ],
                "props":{
                   "title":"Contact Us",
                   "url":"/contactus",
                   "meta":{
                      "new":false
                   }
                 }
                },
                {
                    "children":[
    
                    ],
                    "props":{
                       "title":"Myntra Insider",
                       "url":"/myntrainsider?cache=false",
                       "meta":{
                        "new":true
                     }
                    }
                }
            ],
            "props":{
               "title":"block",
               "meta": {"mobile":true}
            }
         },
         {
            "children":[
               {
                  "children":[

                  ],
                  "props":{
                     "title":"Myntra Credit",
                     "url":"/my/myntracredit"
                  }
               },
               {
                  "children":[

                  ],
                  "props":{
                     "title":"Coupons",
                     "url":"/my/coupons"
                  }
               },
               {
                  "children":[

                  ],
                  "props":{
                     "title":"Saved Cards",
                     "url":"/my/savedcards"
                  }
               },
               {
                  "children":[

                  ],
                  "props":{
                     "title":"Saved Addresses",
                     "url":"/my/address"
                  }
               }
            ],
            "props":{
               "title":"block",
               "meta": {"mobile":false}
            }
         }
      ],
      "props":{
         "title":"account.links"
      }
   }
}
